{
  "compilerOptions": {
    "baseUrl": "src",
    "paths": {
      "@components/*": ["components/*"],
      "@styles/*": ["styles/*"],
      "@utils/*": ["utils/*"],
      "@image/*": ["images/*"]
    },
    "module": "commonjs",
    "target": "es6"
  },
  "exclude": ["node_modules", ".next", "out"]
}
